{
  "config": {
    "apiUrl": "https://homeworkers-api.herokuapp.com",
    "uuid": "18aa52eb-4cba-445a-bb07-b07a5d56d853"
  },
  "expo": {
    "name": "homeworkers (dev)",
    "slug": "homeworkers",
    "privacy": "public",
    "sdkVersion": "34.0.0",
    "platforms": ["ios", "android", "web"],
    "version": "1.0.0",
    "orientation": "portrait",
    "icon": "./assets/icon.png",
    "splash": {
      "image": "./assets/splash.png",
      "resizeMode": "contain",
      "backgroundColor": "#ffffff"
    },
    "updates": {
      "fallbackToCacheTimeout": 0
    },
    "assetBundlePatterns": ["**/*"],
    "ios": {
      "supportsTablet": true
    }
  }
}
